Barcelona or Real Madrid? Who is the better team in the biggest rivalry in the world? - Does the 2018-2019 season really show the best/worst teams?
…
library(ggbump)

## Warning: package 'ggbump' was built under R version 4.0.4

So for this I would like to look at how Barcelona and Real Madrid play against other teams compared to each other but I would also like to look at how they play against each other which is called “El Clasico.”

laliga<- read.csv("index_files/LaLigaStats - season-0910_csv.csv")

So to truly show why the rivalry is so big we need to show how big these teams are compared to the rest of the league.

laliga %>% 
  group_by(HomeTeam) %>% mutate(
  Totalgoals = (sum(FTHG))) 

## # A tibble: 3,800 x 74
## # Groups:   HomeTeam [35]
##    Div   Date  HomeTeam AwayTeam  FTHG  FTAG FTR    HTHG  HTAG HTR      HS    AS
##    <chr> <chr> <chr>    <chr>    <int> <int> <chr> <int> <int> <chr> <int> <int>
##  1 EC    9     Barcelo~ Real Ma~     1     0 H         0     0 D         9    16
##  2 EC    12    Barcelo~ Real Ma~     2     2 D         1     1 D        10    10
##  3 EC    16    Barcelo~ Real Ma~     1     2 A         0     0 D        14    14
##  4 EC    16    Barcelo~ Real Ma~     1     1 D         0     0 D        11    14
##  5 EC    18    Barcelo~ Real Ma~     2     2 D         1     1 D        11    17
##  6 EC    12    Barcelo~ Real Ma~     1     2 A         0     1 A        14    14
##  7 EC    15    Barcelo~ Real Ma~     2     1 H         1     1 D        17    13
##  8 EC    13    Barcelo~ Real Ma~     2     1 H         1     0 H        12    10
##  9 EC    18    Barcelo~ Real Ma~     5     1 H         2     0 H        13    15
## 10 EC    10    Barcelo~ Real Ma~     5     0 H         2     0 H        15     5
## # ... with 3,790 more rows, and 62 more variables: HST <int>, AST <int>,
## #   HF <int>, AF <int>, HC <int>, AC <int>, HY <int>, AY <int>, HR <int>,
## #   AR <int>, B365H <dbl>, B365D <dbl>, B365A <dbl>, BWH <dbl>, BWD <dbl>,
## #   BWA <dbl>, GBH <dbl>, GBD <dbl>, GBA <dbl>, IWH <dbl>, IWD <dbl>,
## #   IWA <dbl>, LBH <dbl>, LBD <dbl>, LBA <dbl>, SBH <dbl>, SBD <dbl>,
## #   SBA <dbl>, WHH <dbl>, WHD <dbl>, WHA <dbl>, SJH <dbl>, SJD <dbl>,
## #   SJA <dbl>, VCH <dbl>, VCD <dbl>, VCA <dbl>, BSH <dbl>, BSD <dbl>,
## #   BSA <dbl>, Bb1X2 <dbl>, BbMxH <dbl>, BbAvH <dbl>, BbMxD <dbl>, BbAvD <dbl>,
## #   BbMxA <dbl>, BbAvA <dbl>, BbOU <dbl>, BbMx.2.5 <dbl>, BbAv.2.5 <dbl>,
…
So the higher the zscore the farther away from the average in a positive aspect a team is.

teamzscore %>% arrange(desc(TotalZscore))

## # A tibble: 35 x 14
##    HomeTeam  Goalaverage ShotAvg OppGoalAvg OppShotAvg STavg OppSTavg Goalzscore
##    <chr>           <dbl>   <dbl>      <dbl>      <dbl> <dbl>    <dbl>      <dbl>
##  1 Barcelona        3.17    17.2      0.695       7.96  7.73     2.81     3.40  
##  2 Real Mad~        3.11    20.6      0.911       9.75  8.52     3.33     3.27  
##  3 Ath Madr~        1.98    14.7      0.7         9.54  5.61     2.97     1.08  
##  4 Valencia         1.81    14.7      1.03       10.7   5.49     3.71     0.754 
##  5 Sevilla          1.93    15.4      1.07       11.1   5.74     3.85     0.979 
##  6 Villarre~        1.65    13.8      0.982      10.8   5.25     3.54     0.451 
##  7 Eibar            1.39    13.2      1.18        9.13  4.51     3.48    -0.0658
##  8 Leganes          1.05    12.0      1.02        9.04  3.79     3.26    -0.722 
##  9 Tenerife         1.37    16        1.53        9.95  5.47     3.84    -0.107 
## 10 Ath Bilb~        1.59    13.7      1.05       10.6   4.92     3.73     0.334 
## # ... with 25 more rows, and 6 more variables: ShotZscore <dbl>,
## #   OppGoalscore <dbl>, OppShotScore <dbl>, STzscore <dbl>, OppSTzscore <dbl>,
## #   TotalZscore <dbl>
…
